<?xml version="1.0" encoding="utf-8"?>
<!-- Generator: Adobe Illustrator 16.0.0, SVG Export Plug-In . SVG Version: 6.00 Build 0)  -->
<!DOCTYPE svg PUBLIC "-//W3C//DTD SVG 1.1//EN" "http://www.w3.org/Graphics/SVG/1.1/DTD/svg11.dtd">
<svg version="1.1" id="Layer_1" xmlns="http://www.w3.org/2000/svg" xmlns:xlink="http://www.w3.org/1999/xlink" x="0px" y="0px"
	 width="50px" height="50px" viewBox="0 0 50 50" enable-background="new 0 0 50 50" xml:space="preserve">
<g>
	<path fill="none" d="M46.299,0H3.69C1.653,0,0,1.614,0,3.604v42.789C0,48.384,1.653,50,3.69,50h42.608
		C48.339,50,50,48.384,50,46.393V3.604C50,1.614,48.339,0,46.299,0z"/>
	<g>
		<path fill="#FFFFFF" d="M37.534,39.086h-5.929v-9.283c0-2.215-0.041-5.063-3.084-5.063c-3.086,0-3.56,2.412-3.56,4.902v9.442
			h-5.929v-19.09h5.691v2.608h0.079c0.791-1.501,2.726-3.084,5.613-3.084c6.007,0,7.116,3.954,7.116,9.092v10.475H37.534z
			 M12.349,17.386c-1.902,0-3.441-1.541-3.441-3.44c0-1.897,1.539-3.438,3.441-3.438c1.896,0,3.438,1.541,3.438,3.438
			C15.786,15.845,14.244,17.386,12.349,17.386L12.349,17.386z M15.313,39.086H9.38v-19.09h5.934L15.313,39.086L15.313,39.086z
			 M40.488,5H6.402C4.773,5,3.45,6.291,3.45,7.883v34.23C3.45,43.707,4.773,45,6.402,45h34.086c1.633,0,2.962-1.293,2.962-2.887
			V7.883C43.45,6.291,42.121,5,40.488,5L40.488,5z"/>
		<path fill="#FFFFFF" d="M45.469,38.219h-0.188v-0.381h0.238c0.121,0,0.262,0.021,0.262,0.182
			C45.781,38.203,45.641,38.219,45.469,38.219L45.469,38.219z M45.654,38.33c0.188-0.023,0.289-0.127,0.289-0.303
			c0-0.213-0.129-0.316-0.396-0.316H45.12v1.123h0.159v-0.488h0.199l0.004,0.006l0.309,0.482h0.173l-0.331-0.5L45.654,38.33
			L45.654,38.33z"/>
		<path fill="#FFFFFF" d="M45.486,39.197c-0.508,0-0.906-0.402-0.906-0.924c0-0.522,0.398-0.922,0.906-0.922
			c0.51,0,0.908,0.399,0.908,0.922C46.395,38.795,45.996,39.197,45.486,39.197L45.486,39.197z M45.486,37.211
			c-0.596,0-1.063,0.467-1.063,1.063c0,0.599,0.468,1.063,1.063,1.063c0.595,0,1.063-0.465,1.063-1.063
			C46.549,37.678,46.082,37.211,45.486,37.211L45.486,37.211z"/>
	</g>
</g>
</svg>
