<?xml version="1.0" encoding="utf-8"?>
<!-- Generator: Adobe Illustrator 16.0.0, SVG Export Plug-In . SVG Version: 6.00 Build 0)  -->
<!DOCTYPE svg PUBLIC "-//W3C//DTD SVG 1.1//EN" "http://www.w3.org/Graphics/SVG/1.1/DTD/svg11.dtd">
<svg version="1.1" id="Layer_1" xmlns="http://www.w3.org/2000/svg" xmlns:xlink="http://www.w3.org/1999/xlink" x="0px" y="0px"
	 width="54.545px" height="50px" viewBox="0 0 54.545 50" enable-background="new 0 0 54.545 50" xml:space="preserve">
<g>
	<path fill="none" d="M48.571,0H5.963c-2.037,0-3.69,1.614-3.69,3.604v42.789c0,1.991,1.653,3.607,3.69,3.607h42.608
		c2.039,0,3.701-1.616,3.701-3.607V3.604C52.272,1.614,50.612,0,48.571,0z"/>
</g>
<g>
	<g>
		<g>
			<g>
				<defs>
					<rect id="SVGID_1_" x="4.773" y="2.5" width="45" height="45"/>
				</defs>
				<clipPath id="SVGID_2_">
					<use xlink:href="#SVGID_1_"  overflow="visible"/>
				</clipPath>
				<g clip-path="url(#SVGID_2_)">
					<g>
						<g>
							<defs>
								<rect id="SVGID_3_" x="4.773" y="2.5" width="45" height="45"/>
							</defs>
							<clipPath id="SVGID_4_">
								<use xlink:href="#SVGID_3_"  overflow="visible"/>
							</clipPath>
							<path clip-path="url(#SVGID_4_)" fill="#FFFFFF" d="M47.036,15.007c-0.475-1.787-1.872-3.193-3.646-3.671
								c-3.217-0.868-16.117-0.868-16.117-0.868s-12.899,0-16.117,0.868c-1.774,0.477-3.172,1.884-3.646,3.671
								C6.647,18.245,6.647,25,6.647,25s0,6.754,0.863,9.993c0.474,1.786,1.872,3.192,3.646,3.669
								c3.218,0.867,16.117,0.867,16.117,0.867s12.9,0,16.117-0.867c1.774-0.477,3.172-1.883,3.646-3.669
								C47.897,31.754,47.897,25,47.897,25S47.897,18.245,47.036,15.007 M23.054,31.133V18.866L33.836,25L23.054,31.133z"/>
						</g>
					</g>
				</g>
			</g>
		</g>
	</g>
</g>
</svg>
